[gd_scene load_steps=7 format=1]

[ext_resource path="res://objects/hook/hook.gd" type="Script" id=1]
[ext_resource path="res://objects/hook/hook image.png" type="Texture" id=2]
[ext_resource path="res://objects/hook/chain_in.smp" type="Sample" id=3]
[ext_resource path="res://objects/hook/ChainoutFX.smp" type="Sample" id=4]

[sub_resource type="RectangleShape2D" id=1]

custom_solver_bias = 0.0
extents = Vector2( 4.33305, 7.02962 )

[sub_resource type="SampleLibrary" id=2]

samples/attach = {
"db": 0.0,
"pitch": 1.0,
"priority": 0,
"sample": ExtResource( 3 )
}
samples/out = {
"db": 0.0,
"pitch": 1.0,
"priority": 0,
"sample": ExtResource( 4 )
}

[node name="hook" type="Node2D"]

script/script = ExtResource( 1 )

[node name="Sprite" type="Sprite" parent="."]

texture = ExtResource( 2 )

[node name="planetSensor" type="Area2D" parent="Sprite"]

transform/pos = Vector2( -5.79744, 1.58112 )
input/pickable = true
shapes/0/shape = SubResource( 1 )
shapes/0/transform = Matrix32( 1, 0, 0, 1, 6.49501, -3.13152 )
shapes/0/trigger = true
gravity_vec = Vector2( 0, 1 )
gravity = 98.0
linear_damp = 0.1
angular_damp = 1.0

[node name="CollisionShape2D" type="CollisionShape2D" parent="Sprite/planetSensor"]

transform/pos = Vector2( 6.49501, -3.13152 )
shape = SubResource( 1 )
trigger = true
_update_shape_index = 0

[node name="attachpoint" type="Node2D" parent="Sprite"]

transform/pos = Vector2( -14, -2 )

[node name="DeathTimer" type="Timer" parent="."]

process_mode = 1
wait_time = 0.5
one_shot = true
autostart = true

[node name="SamplePlayer" type="SamplePlayer" parent="."]

config/polyphony = 1
config/samples = SubResource( 2 )
default/volume_db = 0.0
default/pitch_scale = 1.0
default/pan = 0.0
default/depth = 0.0
default/height = 0.0
default/filter/type = 0
default/filter/cutoff = 5000.0
default/filter/resonance = 1.0
default/filter/gain = 1.0
default/reverb_room = 2
default/reverb_send = 0.0
default/chorus_send = 0.0

[connection signal="body_enter" from="Sprite/planetSensor" to="." method="_on_planetSensor_body_enter"]

[connection signal="timeout" from="DeathTimer" to="." method="_on_DeathTimer_timeout"]


