[gd_scene load_steps=4 format=1]

[ext_resource path="res://objects/planet_parts/PlanetPart.gd" type="Script" id=1]
[ext_resource path="res://objects/planet_parts/part3/peice4.png" type="Texture" id=2]

[sub_resource type="ConvexPolygonShape2D" id=1]

custom_solver_bias = 0.0
points = Vector2Array( -5.31726, -1.1456, 4.69414, -4.42616, 1.41356, 1.85217, -2.65886, 5.69835 )

[node name="PlanetPart3" type="RigidBody2D"]

transform/pos = Vector2( 154.864, 71.0135 )
input/pickable = false
shapes/0/shape = SubResource( 1 )
shapes/0/transform = Matrix32( 1, 0, 0, 1, 0, 2 )
shapes/0/trigger = false
collision/layers = 1
collision/mask = 1
mode = 0
mass = 1.0
friction = 1.0
bounce = 0.0
gravity_scale = 1.0
custom_integrator = false
continuous_cd = 0
contacts_reported = 0
contact_monitor = false
sleeping = false
can_sleep = true
velocity/linear = Vector2( 0, 0 )
velocity/angular = 0.0
damp_override/linear = -1.0
damp_override/angular = -1.0
script/script = ExtResource( 1 )
__meta__ = {
"_edit_group_": true
}
colors = [ Color( 1, 0, 0, 1 ), Color( 1, 0.273438, 0.273438, 1 ), Color( 1, 0.550781, 0.550781, 1 ), Color( 1, 0.234375, 0, 1 ), Color( 0.984375, 0.525663, 0.384521, 1 ), Color( 0.394531, 0.215314, 0.0416107, 1 ), Color( 0.472656, 0.299021, 0.132935, 1 ), Color( 0.464844, 0.340482, 0.221527, 1 ), Color( 0.574219, 0.481934, 0.392532, 1 ), Color( 1, 0.9375, 0, 1 ), Color( 0.984375, 0.943842, 0.338379, 1 ), Color( 1, 0.979752, 0.644531, 1 ), Color( 0.59375, 1, 0, 1 ), Color( 0.733946, 1, 0.347656, 1 ), Color( 0.855986, 1, 0.648438, 1 ), Color( 0.21875, 1, 0, 1 ), Color( 0.5214, 1, 0.386719, 1 ), Color( 0.695688, 0.984375, 0.615234, 1 ), Color( 0, 0.621094, 0.00970459, 1 ), Color( 0, 1, 0.578125, 1 ), Color( 0.398438, 1, 0.745221, 1 ), Color( 0.640625, 1, 0.847794, 1 ), Color( 0, 0.90625, 1, 1 ), Color( 0.347656, 0.938603, 1, 1 ), Color( 0.640625, 0.966176, 1, 1 ), Color( 0, 0.460938, 1, 1 ), Color( 0.381317, 0.663391, 0.996094, 1 ), Color( 0, 0.0625, 1, 1 ), Color( 0.449005, 0.386719, 1, 1 ), Color( 0.695312, 0.700073, 1, 1 ), Color( 0.411163, 0.113281, 1, 1 ), Color( 0.582265, 0.375946, 0.992188, 1 ), Color( 0.529022, 0.0117188, 1, 1 ), Color( 0.678199, 0.324219, 1, 1 ), Color( 0.774664, 0.527344, 1, 1 ), Color( 0.898438, 0, 1, 1 ), Color( 0.920898, 0.367188, 1, 1 ), Color( 0.997406, 0.667969, 1, 1 ), Color( 1, 0, 0.632812, 1 ), Color( 1, 0.292969, 0.740387, 1 ), Color( 1, 0, 0.398438, 1 ), Color( 1, 1, 1, 1 ), Color( 0.796875, 0.796875, 0.796875, 1 ), Color( 0.609375, 0.101965, 0.00238037, 1 ) ]

[node name="Sprite" type="Sprite" parent="."]

transform/pos = Vector2( 0, 2 )
texture = ExtResource( 2 )

[node name="CollisionPolygon2D" type="CollisionPolygon2D" parent="."]

transform/pos = Vector2( 0, 2 )
build_mode = 0
polygon = Vector2Array( -5.31726, -1.1456, 4.69414, -4.42616, 1.41356, 1.85217, -2.65886, 5.69835 )
shape_range = Vector2( 0, 0 )
trigger = false


